FIP606 - Regressão linear
…
exp3

# A tibble: 24 × 4
     exp  trat bloco nplants
   <dbl> <dbl> <dbl>   <dbl>
 1     3     0     1     101
 2     3     0     2      94
 3     3     0     3      93
 4     3     0     4     105
 5     3     3     1      93
 6     3     3     2      97
 7     3     3     3      96
 8     3     3     4     109
 9     3     6     1      99
10     3     6     2      95
# ℹ 14 more rows
…
Residual standard error: 745.8 on 380 degrees of freedom
Multiple R-squared:  0.04833,   Adjusted R-squared:  0.04582 
F-statistic:  19.3 on 1 and 380 DF,  p-value: 1.452e-05

library(broom)
mofo2 <- wr |>
  group_by(study)|>
  do(tidy(lm(.$yld~.$inc), conf.int=TRUE))
mofo2

# A tibble: 70 × 8
# Groups:   study [35]
   study term        estimate std.error statistic  p.value conf.low conf.high
   <dbl> <chr>          <dbl>     <dbl>     <dbl>    <dbl>    <dbl>     <dbl>
 1     1 (Intercept)  3329.       86.8      38.3  4.60e-13   3138.    3520.  
 2     1 .$inc         -14.2       2.08     -6.85 2.78e- 5    -18.8     -9.64
 3     2 (Intercept)  2682.       48.6      55.2  8.55e-15   2575.    2789.  
 4     2 .$inc          -6.93      1.49     -4.66 6.89e- 4    -10.2     -3.66
 5     3 (Intercept)  4017.       61.6      65.2  1.37e-15   3882.    4153.  
 6     3 .$inc         -18.6       1.71    -10.9  3.11e- 7    -22.4    -14.9 
 7     4 (Intercept)  2814.      151.       18.6  1.15e- 9   2481.    3147.  
 8     4 .$inc         -43.5      16.8      -2.58 2.56e- 2    -80.5     -6.38
 9     5 (Intercept)  3317.      234.       14.2  2.07e- 8   2802.    3832.  
10     5 .$inc         -21.2       5.69     -3.72 3.36e- 3    -33.7     -8.67
# ℹ 60 more rows

df <- mofo2 |> filter(term == ".$inc")
mean(df$estimate)

[1] -19.52932

fit_all <- wr%>%
  group_by(study) |> 
  do(broom::tidy(lm(.$yld ~ .$inc), conf.int=TRUE))
fit_all

# A tibble: 70 × 8
# Groups:   study [35]
   study term        estimate std.error statistic  p.value conf.low conf.high
   <dbl> <chr>          <dbl>     <dbl>     <dbl>    <dbl>    <dbl>     <dbl>
 1     1 (Intercept)  3329.       86.8      38.3  4.60e-13   3138.    3520.  
 2     1 .$inc         -14.2       2.08     -6.85 2.78e- 5    -18.8     -9.64
 3     2 (Intercept)  2682.       48.6      55.2  8.55e-15   2575.    2789.  
 4     2 .$inc          -6.93      1.49     -4.66 6.89e- 4    -10.2     -3.66
 5     3 (Intercept)  4017.       61.6      65.2  1.37e-15   3882.    4153.  
 6     3 .$inc         -18.6       1.71    -10.9  3.11e- 7    -22.4    -14.9 
 7     4 (Intercept)  2814.      151.       18.6  1.15e- 9   2481.    3147.  
 8     4 .$inc         -43.5      16.8      -2.58 2.56e- 2    -80.5     -6.38
 9     5 (Intercept)  3317.      234.       14.2  2.07e- 8   2802.    3832.  
10     5 .$inc         -21.2       5.69     -3.72 3.36e- 3    -33.7     -8.67
# ℹ 60 more rows
…
