FIP606 - Outros pacotes e funções na construção de gráficos
…
   21L,     "Cape Verde",       1L,
   22L,          "China",       1L,
   23L,          "Egypt",       1L,
   24L,        "Finland",       1L,
   25L,          "India",       1L,
   26L,          "Italy",       1L,
   27L,       "Malaysia",       1L,
   28L,       "Pakistan",       1L,
   29L,         "Poland",       1L,
   30L,      "Singapore",       1L,
   31L,    "Timor-Leste",       1L,
   32L,        "Uruguay",       1L
  )

# A tibble: 31 × 3
     `1` Brazil         `4,303`
   <int> <chr>            <int>
 1     2 Mozambique          43
 2     3 Portugal            33
 3     4 United States       23
 4     5 Angola              19
 5     6 Spain               16
 6     7 (not set)           12
 7     8 Colombia             8
 8     9 Germany              5
 9    10 Hungary              5
10    11 United Kingdom       5
# ℹ 21 more rows
…
