FIP606 - Gráficos com ggplot
…
O pacote dplyr possui funções que ajudam na manipulação dos dados e facilitam a visualização, como a função select() que seleciona as coluna de um dataframe e a função filter() que permite-se fazer a filtragem das linhas do conjunto.

# filtra Oromia
cr_oromia <- cr |>
  select(farm, region, cultivar, sev2) |>
  filter(region == "Oromia")

# filtra SNNPR
cr_pr <- cr|>
  select(farm, region, cultivar, sev2) |>
  filter(region == "SNNPR")

cr_pr

# A tibble: 240 × 4
    farm region cultivar  sev2
   <dbl> <chr>  <chr>    <dbl>
 1     1 SNNPR  Local    55.6 
 2     2 SNNPR  Mixture  17.9 
 3     3 SNNPR  Mixture   8.25
 4     4 SNNPR  Local    46.1 
 5     5 SNNPR  Local    12.3 
 6     6 SNNPR  Mixture  19.9 
 7     7 SNNPR  Mixture  11.9 
 8     8 SNNPR  Local    55.6 
 9     9 SNNPR  Local    11.6 
10    10 SNNPR  Mixture  11.4 
# ℹ 230 more rows
…
